^G:\DISK\VISUAL_STUDIO_OPENGL\SPHERE\SPHERE\DEBUG\213.OBJ|G:\DISK\VISUAL_STUDIO_OPENGL\SPHERE\SPHERE\DEBUG\SPHERE.EXE.EMBED.MANIFEST.RES
C:\PROGRAM FILES\MICROSOFT VISUAL STUDIO 10.0\VC\LIB\OPENGL32.LIB
C:\PROGRAM FILES\MICROSOFT VISUAL STUDIO 10.0\VC\LIB\GLUT32.LIB
C:\PROGRAM FILES\MICROSOFT VISUAL STUDIO 10.0\VC\LIB\GLAUX.LIB
C:\PROGRAM FILES\MICROSOFT VISUAL STUDIO 10.0\VC\LIB\GLU32.LIB
C:\PROGRAM FILES\MICROSOFT SDKS\WINDOWS\V7.0A\LIB\KERNEL32.LIB
C:\PROGRAM FILES\MICROSOFT SDKS\WINDOWS\V7.0A\LIB\USER32.LIB
C:\PROGRAM FILES\MICROSOFT SDKS\WINDOWS\V7.0A\LIB\GDI32.LIB
C:\PROGRAM FILES\MICROSOFT SDKS\WINDOWS\V7.0A\LIB\WINSPOOL.LIB
C:\PROGRAM FILES\MICROSOFT SDKS\WINDOWS\V7.0A\LIB\COMDLG32.LIB
C:\PROGRAM FILES\MICROSOFT SDKS\WINDOWS\V7.0A\LIB\ADVAPI32.LIB
C:\PROGRAM FILES\MICROSOFT SDKS\WINDOWS\V7.0A\LIB\SHELL32.LIB
C:\PROGRAM FILES\MICROSOFT SDKS\WINDOWS\V7.0A\LIB\OLE32.LIB
C:\PROGRAM FILES\MICROSOFT SDKS\WINDOWS\V7.0A\LIB\OLEAUT32.LIB
C:\PROGRAM FILES\MICROSOFT SDKS\WINDOWS\V7.0A\LIB\UUID.LIB
C:\PROGRAM FILES\MICROSOFT SDKS\WINDOWS\V7.0A\LIB\ODBC32.LIB
C:\PROGRAM FILES\MICROSOFT SDKS\WINDOWS\V7.0A\LIB\ODBCCP32.LIB
G:\DISK\VISUAL_STUDIO_OPENGL\SPHERE\SPHERE\DEBUG\SPHERE.EXE.EMBED.MANIFEST.RES
G:\DISK\VISUAL_STUDIO_OPENGL\SPHERE\SPHERE\DEBUG\213.OBJ
C:\PROGRAM FILES\MICROSOFT VISUAL STUDIO 10.0\VC\LIB\MSVCRTD.LIB
C:\PROGRAM FILES\MICROSOFT VISUAL STUDIO 10.0\VC\LIB\OLDNAMES.LIB
C:\PROGRAM FILES\MICROSOFT VISUAL STUDIO 10.0\VC\BIN\CVTRES.EXE
G:\DISK\VISUAL_STUDIO_OPENGL\SPHERE\DEBUG\SPHERE.EXE
C:\WINDOWS\SYSTEM32\RSAENH.DLL
C:\WINDOWS\SYSTEM32\CRYPT32.DLL
G:\DISK\VISUAL_STUDIO_OPENGL\SPHERE\DEBUG\SPHERE.PDB
C:\PROGRAM FILES\MICROSOFT VISUAL STUDIO 10.0\VC\BIN\LINK.EXE
